[
{
    "model": "event.event",
    "pk": 1,
    "fields": {
        "lecture_term": 2,
        "lecture_hall": 1,
        "start": "2017-01-16T22:00:00",
        "stop": "2017-01-16T23:30:00"
    }
},
{
    "model": "event.event",
    "pk": 2,
    "fields": {
        "lecture_term": 2,
        "lecture_hall": 1,
        "start": "2017-01-23T22:00:00",
        "stop": "2017-01-23T23:30:00"
    }
},
{
    "model": "event.event",
    "pk": 3,
    "fields": {
        "lecture_term": 2,
        "lecture_hall": 1,
        "start": "2017-01-30T22:00:00",
        "stop": "2017-01-30T23:30:00"
    }
},
{
    "model": "event.event",
    "pk": 4,
    "fields": {
        "lecture_term": 2,
        "lecture_hall": 1,
        "start": "2017-02-06T22:00:00",
        "stop": "2017-02-06T23:30:00"
    }
}
]
