<?xml version="1.0" encoding="UTF-8" standalone="no"?>
<!-- Created with Inkscape (http://www.inkscape.org/) -->

<svg
   xmlns:dc="http://purl.org/dc/elements/1.1/"
   xmlns:cc="http://creativecommons.org/ns#"
   xmlns:rdf="http://www.w3.org/1999/02/22-rdf-syntax-ns#"
   xmlns:svg="http://www.w3.org/2000/svg"
   xmlns="http://www.w3.org/2000/svg"
   xmlns:sodipodi="http://sodipodi.sourceforge.net/DTD/sodipodi-0.dtd"
   xmlns:inkscape="http://www.inkscape.org/namespaces/inkscape"
   id="svg2"
   version="1.1"
   inkscape:version="0.48.4 r9939"
   width="411.5875"
   height="103.575"
   viewBox="0 0 150 38"
   xml:space="preserve"
   sodipodi:docname="logo_interact_white.svg"><metadata
     id="metadata8"><rdf:RDF><cc:Work
         rdf:about=""><dc:format>image/svg+xml</dc:format><dc:type
           rdf:resource="http://purl.org/dc/dcmitype/StillImage" /><dc:title /></cc:Work></rdf:RDF></metadata><defs
     id="defs6"><clipPath
       clipPathUnits="userSpaceOnUse"
       id="clipPath18"><path
         d="M 89.707,410.145 C 26.3711,364.387 -4.46875,320.09 0.523438,282.051 1.76953,272.59 5.26953,263.574 10.9258,255.266 l 7.1055,-10.442 -0.1016,12.625 c -0.2539,31.528 26.2695,68.508 76.7031,106.965 l 1.5274,1.16 -0.4414,48.762 -6.0118,-4.191"
         id="path20" /></clipPath><linearGradient
       x1="0"
       y1="0"
       x2="1"
       y2="0"
       gradientUnits="userSpaceOnUse"
       gradientTransform="matrix(13.2636,7.65771,7.65771,-13.2636,-0.993164,29.1016)"
       spreadMethod="pad"
       id="linearGradient22"><stop
         style="stop-opacity:1;stop-color:#231f20"
         offset="0"
         id="stop24" /><stop
         style="stop-opacity:1;stop-color:#ffffff"
         offset="1"
         id="stop26" /></linearGradient><clipPath
       clipPathUnits="userSpaceOnUse"
       id="clipPath64"><path
         d="M 97.6836,298.27 C 45.082,202.461 37.7813,122.961 77.1328,74.4258 77.1406,74.4141 88.9219,62.1289 88.9219,62.1289 l 5.8984,4.7344 C 70.1484,110.266 77.2773,173.73 115.445,250.41 l 0.672,1.348 -0.433,1.457 c -4.262,14.312 -7.926,29.109 -10.879,43.965 l -2.055,10.32 -5.0664,-9.23"
         id="path66" /></clipPath><linearGradient
       x1="0"
       y1="0"
       x2="1"
       y2="0"
       gradientUnits="userSpaceOnUse"
       gradientTransform="matrix(12.126,7.00098,7.00098,-12.126,3.28857,14.8472)"
       spreadMethod="pad"
       id="linearGradient68"><stop
         style="stop-opacity:1;stop-color:#231f20"
         offset="0"
         id="stop70" /><stop
         style="stop-opacity:1;stop-color:#ffffff"
         offset="1"
         id="stop72" /></linearGradient><clipPath
       clipPathUnits="userSpaceOnUse"
       id="clipPath80"><path
         d="m 820.121,821.484 -9.812,-1.757 46.461,-28.957 1.531,0.109 c 76.527,11.101 135.144,0.656 169.499,-30.168 l 5.9,4.746 -9.72,14.328 c -36.199,44.629 -106.695,59.051 -203.859,41.699"
         id="path82" /></clipPath><linearGradient
       x1="0"
       y1="0"
       x2="1"
       y2="0"
       gradientUnits="userSpaceOnUse"
       gradientTransform="matrix(6.98949,8.32975,8.32975,-6.98949,88.9214,75.3521)"
       spreadMethod="pad"
       id="linearGradient84"><stop
         style="stop-opacity:1;stop-color:#ffffff"
         offset="0"
         id="stop86" /><stop
         style="stop-opacity:1;stop-color:#231f20"
         offset="1"
         id="stop88" /></linearGradient></defs><sodipodi:namedview
     pagecolor="#ffffff"
     bordercolor="#666666"
     borderopacity="1"
     objecttolerance="10"
     gridtolerance="10"
     guidetolerance="10"
     inkscape:pageopacity="0"
     inkscape:pageshadow="2"
     inkscape:window-width="1850"
     inkscape:window-height="1008"
     id="namedview4"
     showgrid="false"
     inkscape:zoom="1.2403951"
     inkscape:cx="577.22147"
     inkscape:cy="-43.061192"
     inkscape:window-x="65"
     inkscape:window-y="24"
     inkscape:window-maximized="0"
     inkscape:current-layer="g10" /><g
     id="g10"
     inkscape:groupmode="layer"
     inkscape:label="ink_ext_XXXXXX"
     transform="matrix(1.25,0,0,-1.25,0,103.575)"><g
       id="g12"
       transform="matrix(0.03661724,0,0,0.03661724,4.2079995e-5,52.520432)"
       style="fill:#ffffff;fill-opacity:1"><g
         id="g14"
         style="fill:#ffffff;fill-opacity:1"><g
           id="g16"
           clip-path="url(#clipPath18)"
           style="fill:#ffffff;fill-opacity:1"><path
             d="M 89.707,410.145 C 26.3711,364.387 -4.46875,320.09 0.523438,282.051 1.76953,272.59 5.26953,263.574 10.9258,255.266 l 7.1055,-10.442 -0.1016,12.625 c -0.2539,31.528 26.2695,68.508 76.7031,106.965 l 1.5274,1.16 -0.4414,48.762 -6.0118,-4.191"
             style="fill:#ffffff;fill-opacity:1;fill-rule:nonzero;stroke:none"
             id="path28"
             inkscape:connector-curvature="0" /></g></g><path
         d="m 1019.78,598.098 14.93,-35.032 1.57,-0.714 c 26.45,-10.079 45.1,-22.879 55.44,-38.043 l 7.81,-11.457 -1.25,21.171 c -3.9,29.407 -29.39,53.348 -73.74,69.305 l -4.82,1.738 0.06,-6.968"
         style="fill:#ffffff;fill-opacity:1;fill-rule:nonzero;stroke:none"
         id="path30"
         inkscape:connector-curvature="0" /><path
         d="m 1280.14,461.68 43.68,0 0,-228.821 -43.68,0 0,228.821 z m 0,85.578 43.68,0 0,-48.02 -43.68,0 0,48.02"
         style="fill:#ffffff;fill-opacity:1;fill-rule:nonzero;stroke:none"
         id="path32"
         inkscape:connector-curvature="0" /><path
         d="m 1398.9,461.68 43.66,0 0,-34.524 0.89,0 c 20.51,31.907 56.76,42.364 89.48,42.364 55.04,0 96.08,-23.575 96.08,-80.758 l 0,-155.903 -43.68,0 0,147.153 c 0,33.633 -20.95,52.847 -67.69,52.847 -39.72,0 -75.08,-23.152 -75.08,-68.125 l 0,-131.875 -43.66,0 0,228.821"
         style="fill:#ffffff;fill-opacity:1;fill-rule:nonzero;stroke:none"
         id="path34"
         inkscape:connector-curvature="0" /><path
         d="m 1723.33,531.98 43.66,0 0,-70.3 65.49,0 0,-34.075 -65.49,0 0,-141.023 c 0,-18.34 13.11,-24.902 35.36,-24.902 10.04,0 20.11,1.328 30.13,3.078 l 0,-36.692 c -14.86,-2.617 -30.98,-3.054 -48.89,-3.054 -42.79,0 -60.26,20.965 -60.26,54.136 l 0,148.457 -47.17,0 0,34.075 47.17,0 0,70.3"
         style="fill:#ffffff;fill-opacity:1;fill-rule:nonzero;stroke:none"
         id="path36"
         inkscape:connector-curvature="0" /><path
         d="m 2087.9,368.242 c -6.55,41.465 -38.87,64.617 -79.88,64.617 -40.19,0 -76.43,-23.574 -82.97,-64.617 l 162.85,0 z m -164.17,-34.07 c 3.48,-47.168 45.43,-72.492 84.29,-72.492 24.88,0 58.92,8.3 73.77,40.633 l 46.3,0 c -21.85,-55.04 -72.96,-77.301 -117.91,-77.301 -89.09,0 -132.71,56.328 -132.71,122.273 0,65.93 43.62,122.235 132.71,122.235 60.28,0 124.01,-34.911 124.01,-129.684 l 0,-5.664 -210.46,0"
         style="fill:#ffffff;fill-opacity:1;fill-rule:nonzero;stroke:none"
         id="path38"
         inkscape:connector-curvature="0" /><path
         d="m 2200.57,461.68 43.64,0 0,-41.934 0.89,0 c 20.51,36.262 49.79,49.774 78.6,49.774 10.9,0 16.6,-0.418 24.88,-2.594 l 0,-47.18 c -10.92,2.617 -19.18,4.356 -30.99,4.356 -43.24,0 -73.38,-25.313 -73.38,-75.098 l 0,-116.145 -43.64,0 0,228.821"
         style="fill:#ffffff;fill-opacity:1;fill-rule:nonzero;stroke:none"
         id="path40"
         inkscape:connector-curvature="0" /><path
         d="m 2519.22,395.957 -0.65,0 -27.5,-79.238 55.64,0 -27.49,79.238 z m -56.97,70.754 113.29,0 99.56,-233.852 -98.25,0 -9.8,26.86 -96.3,0 -9.81,-26.86 -98.26,0 99.57,233.852"
         style="fill:#ffffff;fill-opacity:1;fill-rule:nonzero;stroke:none"
         id="path42"
         inkscape:connector-curvature="0" /><path
         d="m 3004.19,323.906 c -5.86,-30.781 -16.36,-55.664 -39.28,-72.707 -22.58,-17.011 -57.98,-26.519 -114.3,-26.519 -56.01,0 -159.79,3.922 -159.79,125.093 0,121.172 103.78,125.098 159.79,125.098 55.68,0 141.47,-7.176 153.58,-99.851 l -104.12,0 c -2.63,16.679 -13.75,40.925 -49.46,40.925 -37.67,0 -61.55,-18.679 -61.55,-66.172 0,-47.46 23.23,-66.14 56.97,-66.14 29.14,0 46.51,12.097 54.04,40.273 l 104.12,0"
         style="fill:#ffffff;fill-opacity:1;fill-rule:nonzero;stroke:none"
         id="path44"
         inkscape:connector-curvature="0" /><path
         d="m 3114.92,407.742 -85.51,0 0,58.969 263.32,0 0,-58.969 -85.5,0 0,-174.883 -92.31,0 0,174.883"
         style="fill:#ffffff;fill-opacity:1;fill-rule:nonzero;stroke:none"
         id="path46"
         inkscape:connector-curvature="0" /><path
         d="m 301.762,560.383 -0.086,-0.012 c 0,0 0.019,0.012 0.086,0.012"
         style="fill:#ffffff;fill-opacity:1;fill-rule:nonzero;stroke:none"
         id="path48"
         inkscape:connector-curvature="0" /><path
         d="m 310.531,595.703 c -0.926,-0.488 -1.394,-0.957 -1.394,-0.957 0,0 0.535,0.359 1.394,0.957"
         style="fill:#ffffff;fill-opacity:1;fill-rule:nonzero;stroke:none"
         id="path50"
         inkscape:connector-curvature="0" /><path
         d="m 228.816,385.969 c 0,195.203 158.805,354.004 353.993,354.004 94.589,0 183.464,-36.828 250.328,-103.696 C 900,569.426 936.813,480.527 936.813,385.969 936.813,190.77 778.012,31.9727 582.809,31.9727 387.621,31.9727 228.816,190.77 228.816,385.969 z m -14.5,0 c 0,-203.196 165.309,-368.5198 368.493,-368.5198 203.203,0 368.519,165.3238 368.519,368.5198 0,98.426 -38.336,190.965 -107.933,260.574 C 773.789,716.145 681.266,754.48 582.809,754.48 379.625,754.48 214.316,589.172 214.316,385.969"
         style="fill:#ffffff;fill-opacity:1;fill-rule:nonzero;stroke:none"
         id="path52"
         inkscape:connector-curvature="0" /><path
         d="m 539.172,741.063 c -6.063,0 5.047,-9.297 11.109,-9.297 6.043,0 16.16,-2.789 19.188,-5.575 3.035,-2.785 17.152,0 24.222,0 7.051,0 24.207,-11.152 24.207,-11.152 0,0 0,14.875 6.04,9.285 6.074,-5.574 8.074,-13.933 16.167,-10.215 8.083,3.711 27.25,2.786 26.227,-0.925 -0.988,-3.719 9.074,-6.504 15.152,-6.504 6.059,0 27.246,-7.442 26.227,-12.078 -1.008,-4.653 3.043,-11.164 17.172,-13.95 14.117,-2.781 15.137,-2.781 21.176,-8.355 6.066,-5.578 20.039,-13.988 21.211,-17.649 2.566,-8.253 7.566,-15.339 12.101,-19.531 4.535,-4.179 2.527,-19.98 -2.016,-15.793 -4.539,4.184 -28.257,26.965 -33.328,26.965 -5.027,0 -31.25,1.848 -25.211,-12.101 6.067,-13.934 12.118,-28.797 11.09,-32.516 -0.984,-3.703 -13.093,-21.367 -7.062,-24.16 6.078,-2.785 9.094,-22.297 15.16,-22.297 6.023,0 9.086,7.43 9.086,7.43 0,0 15.117,-22.301 20.18,-22.301 5.039,0 6.046,3.719 4.019,9.297 -2.027,5.574 3.051,13.933 0,16.714 -3.027,2.793 -16.148,13.95 -18.152,18.586 -2.008,4.649 3.523,10.684 0,13.946 -3.547,3.254 -8.074,18.586 -3.035,16.726 5.039,-1.851 10.113,-8.367 11.128,-15.8 0.977,-7.442 12.086,-27.872 18.141,-26.012 6.074,1.851 11.098,3.711 9.09,-1.86 -2.023,-5.586 1.004,-15.796 1.004,-15.796 0,0 -1.004,-5.586 0,-8.372 1.004,-2.785 7.062,-8.359 2,-11.14 -5.027,-2.793 -19.156,-4.66 -22.203,-9.297 -3.016,-4.652 -11.629,5.418 -13.657,7.273 -2.019,1.868 -3.812,13.223 -8.515,7.586 -4.371,-5.203 9.062,-17.652 9.062,-17.652 0,0 -8.078,-2.785 -9.062,-7.434 -1.031,-4.636 -4.047,-19.511 -8.09,-20.437 -4.051,-0.93 -5.02,-8.363 -10.078,-9.289 -5.043,-0.938 -16.145,-0.938 -12.109,-4.668 4.011,-3.699 17.167,-9.277 16.14,-12.988 -1.023,-3.719 6.047,-21.387 1.027,-21.387 -5.058,0 -31.828,1.406 -35.332,-1.848 -3.55,-3.25 3.024,-21.375 3.024,-21.375 0,0 -4.543,-13.476 -1.027,-16.719 3.543,-3.261 11.113,0 12.132,-2.8 0.996,-2.793 2.004,-4.653 9.063,-4.653 7.082,0 20.187,1.86 20.187,5.578 0,3.731 4.032,23.243 4.032,23.243 0,0 11.089,1.855 11.089,5.578 0,3.711 3.067,14.871 3.067,14.871 0,0 7.055,0 10.082,0 3.019,0 7.562,9.746 10.074,7.43 2.555,-2.332 24.731,-19.989 27.258,-22.301 2.504,-2.324 5.18,-10.207 1.656,-13.457 -3.547,-3.254 6.004,-4.516 7.918,-0.989 2.27,4.161 -0.492,15.364 3.539,11.653 4.063,-3.711 9.086,0 4.063,2.793 -5.047,2.781 -33.34,25.078 -32.317,27.879 1.008,2.785 7.075,6.496 9.098,1.855 2.012,-4.648 12.098,-13.945 16.156,-13.945 4.02,0 10.063,-5.574 10.063,-8.367 0,-2.778 9.082,-22.297 9.082,-22.297 0,0 6.078,-5.567 5.054,0 -1.019,5.578 -6.566,14.402 -3.05,17.656 2.504,2.266 8.843,3.633 11.464,6.121 1.149,1.086 1.586,2.402 0.668,4.094 -3.031,5.586 -5.046,31.601 1.04,33.469 6.035,1.851 12.074,3.711 15.105,0.906 3.043,-2.774 19.176,-6.504 17.152,-11.133 -2.011,-4.656 -9.574,-3.254 -13.113,-6.504 -3.531,-3.254 -8.059,-13.019 -8.059,-13.019 0,0 -13.136,-19.508 -10.121,-25.086 3.051,-5.567 14.649,-8.821 17.188,-6.504 2.523,2.312 10.09,3.719 11.074,0 1.02,-3.723 0,-22.293 -1.992,-27.879 -2.027,-5.57 -10.109,-4.641 -11.109,-7.426 -1.02,-2.793 -8.09,-4.656 -12.11,-2.793 -4.015,1.856 -18.168,10.219 -20.18,6.508 -2.019,-3.715 -21.699,5.105 -24.234,7.43 -2.519,2.336 -17.664,15.332 -21.195,12.089 -3.535,-3.261 -17.153,-2.8 -21.207,-3.718 -4.012,-0.93 -17.645,-6.035 -20.164,-8.371 -2.532,-2.325 -9.078,-5.579 -16.145,-5.579 -7.058,0 -13.117,2.786 -15.14,0.942 -2.016,-1.875 -14.629,-18.125 -21.196,-24.172 -6.566,-6.047 5.055,-9.285 -2.015,-15.789 -7.059,-6.508 -20.684,-18.125 -26.258,-23.234 -5.528,-5.11 -17.156,-23.235 -15.117,-29.727 2.023,-6.504 -1.016,-13.02 -5.039,-20.457 -4.051,-7.434 -9.106,-22.297 -3.043,-31.594 6.043,-9.277 11.105,-9.277 12.105,-15.801 1.008,-6.496 21.203,-22.296 26.246,-24.152 5.059,-1.851 14.133,-2.793 16.156,-0.918 2.02,1.848 21.7,-2.344 25.231,0.918 3.539,3.242 17.644,15.324 23.191,10.219 5.571,-5.11 1.024,-11.137 8.078,-11.137 7.078,0 20.192,4.641 16.157,-3.726 -4.047,-8.372 -15.161,-16.719 -12.094,-23.223 3.015,-6.516 3.015,-26.965 0,-33.457 -3.067,-6.516 -27.262,-29.738 -30.309,-34.387 -2.992,-4.656 -13.019,-21.8358 -13.019,-30.6053 0,-6.3203 56.574,19.7263 66.527,38.0783 11.113,20.445 31.27,12.976 37.328,18.543 6.067,5.586 27.25,57.629 33.336,60.398 6.02,2.785 36.813,41.352 42.36,46.469 5.542,5.113 17.175,39.031 17.175,39.031 0,0 -7.07,-8.371 -13.125,-7.441 -6.054,0.937 -3.027,13.933 -3.027,17.656 0,3.723 -4.047,7.434 -4.047,7.434 0,0 2.508,15.34 0,17.656 -2.523,2.32 4.047,11.148 2.008,14.859 -2.008,3.735 -2.008,17.657 -4.031,21.391 -2.012,3.711 2.023,12.066 3.043,6.504 0.988,-5.578 1.507,-20.918 4.019,-23.235 2.524,-2.335 4.047,-12.089 4.047,-19.519 0,-7.434 -0.996,-24.16 3.023,-26.008 4.032,-1.875 23.227,38.098 24.211,42.727 1.02,4.656 3.032,39.031 3.032,39.031 0,0 -2.508,-7.891 -7.059,-3.711 -4.535,4.187 -9.086,21.379 -9.086,24.16 0,2.793 4.039,1.856 8.082,-1.863 4.047,-3.711 10.086,-8.363 10.086,-8.363 0,0 6.758,0.285 8.078,2.793 2.309,4.414 4.176,9.496 5.571,15.128 -7.575,166.641 -137.739,304.082 -309.645,337.879 -57.051,7.539 -96.188,1.036 -99.621,1.036"
         style="fill:#ffffff;fill-opacity:1;fill-rule:nonzero;stroke:none"
         id="path54"
         inkscape:connector-curvature="0" /><path
         d="m 231.414,422.488 c -2.726,-2.539 6.168,-24.715 10.945,-29.168 4.797,-4.433 -2.734,-29.14 -2.734,-35.488 0,-6.328 15.059,-13.945 17.785,-16.477 2.719,-2.527 6.82,-30.417 -2.726,-54.507 -9.571,-24.075 39.648,-77.305 47.855,-84.922 8.215,-7.602 23.254,0 31.469,-45.637 8.199,-45.613 81.32,-81.6406 74.472,-77.8437 -6.824,3.8008 -7.449,22.0747 -7.449,22.0747 l 2.715,10.156 c 0,0 -12.305,15.203 -9.574,21.531 2.726,6.34 13.695,3.809 13.695,3.809 0,0 2.723,11.406 1.348,16.484 -1.348,5.066 -2.723,19.004 -2.723,19.004 0,0 8.203,8.867 10.93,6.34 2.746,-2.524 1.383,15.215 0,22.808 -1.363,7.618 -6.832,3.813 -13.676,7.618 -6.848,3.8 -4.09,11.41 -9.574,13.937 -5.457,2.539 -19.836,5.715 -24.625,10.137 -4.774,4.441 -4.082,10.136 -13.652,13.957 -9.59,3.797 -12.301,5.054 -12.301,5.054 l 4.082,10.149 c 0,0 -9.555,20.293 -10.946,27.891 -1.371,7.597 -18.464,3.156 -23.253,7.597 -4.782,4.453 -12.317,34.238 -16.407,39.297 -4.105,5.066 -5.465,-5.059 -10.933,0 -5.5,5.066 -10.973,22.813 -13.692,25.359 -2.726,2.532 -4.109,-8.882 -9.578,-8.882 -5.457,0 0,0 -10.933,2.539 -10.934,2.547 0,44.363 0,44.363 0,0 -6.821,5.066 -6.821,10.137 0,5.078 10.934,36.765 5.45,36.765 -5.45,0 -6.836,-13.941 -10.938,-13.941 -4.094,0 -1.371,25.348 0,35.496 1.375,10.129 13.691,24.082 17.785,27.883 4.09,3.797 6.82,-8.867 9.57,-11.418 2.739,-2.52 19.157,6.348 16.403,3.808 -2.746,-2.539 0,-44.375 0,-39.289 0,5.063 9.582,22.817 12.305,36.75 2.765,13.946 28.742,49.434 31.464,46.914 2.75,-2.546 4.121,-8.878 13,4.422 8.895,13.313 21.2,19.653 21.2,10.774 0,-8.289 -5.965,-9.934 -6.743,-10.117 l 23.157,5.046 c 0,0 -6.844,1.274 -4.114,11.411 2.754,10.156 8.219,8.875 0,12.671 -5.55,2.579 -9.234,1.665 -11.019,0.813 -0.793,-0.496 -1.281,-0.813 -1.281,-0.813 0,0 0.429,0.403 1.281,0.813 3.25,2.043 11.836,7.551 15.133,10.605 4.105,3.797 17.093,-4.433 21.89,-8.867 4.785,-4.441 -4.797,-12.051 -8.215,-15.222 -3.41,-3.164 5.457,-3.801 5.457,-3.801 l 15.067,-8.875 c 0,0 -1.375,10.137 -6.863,12.676 -5.446,2.539 12.32,20.293 16.457,21.55 4.066,1.27 2.711,15.215 4.066,24.082 1.387,8.875 19.176,30.43 19.176,30.43 0,0 -10.961,-3.808 -13.692,-6.34 -2.742,-2.539 -6.839,-3.804 -5.484,6.34 1.387,10.125 17.797,21.531 13.699,13.938 -4.121,-7.621 17.766,0 17.766,0 0,0 8.23,3.796 8.23,11.406 0,7.594 12.285,0 19.137,0 6.832,0 8.184,0 6.832,7.594 -1.355,7.621 8.191,11.418 20.508,7.621 12.305,-3.813 9.574,6.336 19.164,11.406 9.566,5.066 20.523,10.137 20.523,10.137 0,0 -16.421,-3.801 -16.421,0 0,3.804 -10.961,7.617 -19.157,5.066 -8.207,-2.519 -4.793,10.781 0,15.215 4.801,4.434 6.848,7.605 -4.109,6.348 -10.934,-1.282 -20.457,-13.973 -25.981,-5.079 -5.507,8.899 31.465,21.551 57.446,25.352 0,0 2.308,3.359 3.199,6.789 C 394.203,722.363 271.918,616.797 234.07,479.863 c 0.063,-0.058 0.063,-0.168 0.09,-0.222 4.094,-11.282 -5.472,-31.809 -8.222,-38.149 -0.059,-0.113 -0.063,-0.254 -0.11,-0.379 -0.113,-0.715 -0.215,-1.433 -0.332,-2.16 0.242,-6.211 8.32,-14.258 5.918,-16.465"
         style="fill:#ffffff;fill-opacity:1;fill-rule:nonzero;stroke:none"
         id="path56"
         inkscape:connector-curvature="0" /><path
         d="m 1044.69,754.129 -0.1,0.129 0.1,-0.129 -11.77,12.297 -5.89,-4.758 c 21.66,-38.082 18.65,-92.574 -8.7,-157.586 C 970.258,489.746 851.52,354.453 700.719,242.168 546.461,127.336 377.563,50.1758 248.93,35.7813 179.645,28.0273 126.098,39.1094 94.0469,67.832 L 88.1602,63.0742 97.875,48.7773 C 130.934,7.99609 193.5,-7.66406 278.813,3.50781 407.484,20.3438 574.664,97.6758 726.012,210.359 c 148.269,110.403 263.152,239.368 315.198,353.829 37.04,81.41 38.24,147.089 3.48,189.941"
         style="fill:#ffffff;fill-opacity:1;fill-rule:nonzero;stroke:none"
         id="path58"
         inkscape:connector-curvature="0" /><g
         id="g60"
         style="fill:#ffffff;fill-opacity:1"><g
           id="g62"
           clip-path="url(#clipPath64)"
           style="fill:#ffffff;fill-opacity:1"><path
             d="M 97.6836,298.27 C 45.082,202.461 37.7813,122.961 77.1328,74.4258 77.1406,74.4141 88.9219,62.1289 88.9219,62.1289 l 5.8984,4.7344 C 70.1484,110.266 77.2773,173.73 115.445,250.41 l 0.672,1.348 -0.433,1.457 c -4.262,14.312 -7.926,29.109 -10.879,43.965 l -2.055,10.32 -5.0664,-9.23"
             style="fill:#ffffff;fill-opacity:1;fill-rule:nonzero;stroke:none"
             id="path74"
             inkscape:connector-curvature="0" /></g></g><g
         id="g76"
         style="fill:#ffffff;fill-opacity:1"><g
           id="g78"
           clip-path="url(#clipPath80)"
           style="fill:#ffffff;fill-opacity:1"><path
             d="m 820.121,821.484 -9.812,-1.757 46.461,-28.957 1.531,0.109 c 76.527,11.101 135.144,0.656 169.499,-30.168 l 5.9,4.746 -9.72,14.328 c -36.199,44.629 -106.695,59.051 -203.859,41.699"
             style="fill:#ffffff;fill-opacity:1;fill-rule:nonzero;stroke:none"
             id="path90"
             inkscape:connector-curvature="0" /></g></g><path
         d="M 1091.05,526.434 C 1091.82,433.086 858.746,303.32 571.488,237.168 306.023,176.035 67.7578,185.664 17.2617,259.578 l -7.89842,11.567 1.39452,-21.34 c 2.5039,-19.035 13.8086,-35.657 33.5938,-49.383 82.2344,-57.094 298.8754,-58.281 539.0784,-2.973 302.41,69.629 537.94,206.172 525.02,304.375 -1.26,9.571 -4.76,18.586 -10.4,26.809 l -7.1,10.332 0.1,-12.531"
         style="fill:#ffffff;fill-opacity:1;fill-rule:nonzero;stroke:none"
         id="path92"
         inkscape:connector-curvature="0" /><path
         d="m 608.203,672.832 c -2.555,-5.066 -12.683,-10.137 -12.683,-15.203 0,-5.07 -5.707,-6.965 -10.137,-11.418 -4.442,-4.434 -11.43,-15.215 -11.43,-20.281 0,-5.063 -13.914,-3.801 -27.863,0 -13.945,3.804 -16.481,-15.207 -24.098,-17.739 -7.594,-2.539 -6.324,5.071 -10.133,3.813 -3.793,-1.281 -31.703,-29.16 -34.222,-26.633 -2.539,2.539 -5.074,6.348 -5.074,6.348 0,0 -5.067,1.258 -3.817,7.597 1.274,6.336 18.41,28.516 24.098,34.219 5.715,5.703 15.851,3.164 20.293,7.61 4.441,4.441 8.855,10.144 8.855,10.144 0,0 10.153,13.945 17.754,13.945 7.621,0 3.813,7.598 0,11.399 -3.793,3.805 16.484,2.547 16.484,7.605 0,8.875 32.958,11.407 36.743,11.407 3.828,0 13.961,-3.797 19.019,-3.797 5.078,0 13.961,-8.871 13.961,-8.871 0,0 -15.234,-5.079 -17.75,-10.145"
         style="fill:#ffffff;fill-opacity:1;fill-rule:nonzero;stroke:none"
         id="path94"
         inkscape:connector-curvature="0" /><path
         d="m 641.273,594.348 c -8.875,2.539 -12.683,8.875 -12.683,12.672 0,3.8 -2.527,10.148 5.078,12.675 5.098,1.7 10.133,-5.066 16.469,-5.066 6.34,0 13.941,2.539 13.941,-2.539 0,-5.07 -2.535,-11.406 -10.133,-12.676 -7.59,-1.262 -3.808,-7.598 -12.672,-5.066 z m 51.321,-56.743 1.043,2.122 c 5.25,4.191 9.422,-6.289 8.379,-10.481 -1.043,-4.187 -1.043,-7.32 1.043,-9.422 2.093,-2.097 -4.18,-7.336 -9.422,-9.426 -5.219,-2.089 -4.188,2.09 -5.219,8.372 -1.063,6.289 -3.145,11.523 -5.238,13.625 -2.11,2.085 6.769,2.617 9.414,5.21 z m 6.285,29.336 c 3.137,0 5.23,-9.421 5.23,-9.421 0,0 10.047,-2.266 10.047,-5.418 0,-3.137 8.332,-10.293 8.332,-10.293 0,0 1.528,-16.75 7.793,-16.75 6.278,0 3.149,-15.711 3.149,-15.711 0,0 -5.231,-2.082 -9.414,-2.082 -4.196,0 -13.621,-7.332 -13.621,-4.2 0,3.157 -3.153,12.571 2.085,15.704 5.239,3.156 -0.191,16.562 -4.371,20.742 -4.207,4.187 -5.828,5.703 -10.007,11.98 -4.192,6.289 -4.465,15.449 0.777,15.449"
         style="fill:#ffffff;fill-opacity:1;fill-rule:nonzero;stroke:none"
         id="path96"
         inkscape:connector-curvature="0" /></g></g></svg>